…
``` r
lyrics_tidy %>% 
  inner_join(get_sentiments("bing")) %>% 
  group_by(year, artist, word, sentiment) %>% 
  summarize(count = n()) %>% 
  ungroup() %>% 
  group_by(year, artist, sentiment) %>% 
  summarize(total = sum(count)) %>% 
  mutate(prop = total/sum(total)) %>% 
  filter(year == 1985,
         sentiment == "positive") %>% 
  arrange(desc(prop))
```

    ## # A tibble: 62 x 5
    ## # Groups:   year, artist [62]
    ##      year                    artist sentiment total      prop
    ##    <fctr>                     <chr>     <chr> <int>     <dbl>
    ##  1   1985                   Chicago  positive    13 1.0000000
    ##  2   1985        Harold Faltermeyer  positive     1 1.0000000
    ##  3   1985         The Honeydrippers  positive    11 1.0000000
    ##  4   1985     Katrina and the Waves  positive    36 0.9729730
    ##  5   1985           Whitney Houston  positive    49 0.9607843
    ##  6   1985               Billy Ocean  positive    47 0.9591837
    ##  7   1985           Kool & the Gang  positive   156 0.9397590
    ##  8   1985 Prince and The Revolution  positive    14 0.9333333
    ##  9   1985                     Heart  positive    13 0.9285714
    ## 10   1985         Ashford & Simpson  positive    69 0.9200000
    ## # ... with 52 more rows
``` r
lyrics_tidy %>% 
  inner_join(get_sentiments("bing")) %>% 
  group_by(year, artist, word, sentiment) %>% 
  summarize(count = n()) %>% 
  ungroup() %>% 
  group_by(year, artist, sentiment) %>% 
  summarize(total = sum(count)) %>% 
  mutate(prop = total/sum(total)) %>% 
  filter(year == 2005,
         sentiment == "positive") %>% 
  arrange(desc(prop))
```

    ## # A tibble: 48 x 5
    ## # Groups:   year, artist [48]
    ##      year              artist sentiment total      prop
    ##    <fctr>               <chr>     <chr> <int>     <dbl>
    ##  1   2005          Faith Hill  positive     3 1.0000000
    ##  2   2005 Natasha Bedingfield  positive    58 0.9508197
    ##  3   2005      Jennifer Lopez  positive    36 0.9230769
    ##  4   2005          John Mayer  positive    19 0.9047619
    ##  5   2005             Rihanna  positive     6 0.8571429
    ##  6   2005               Mario  positive    40 0.8333333
    ##  7   2005              Weezer  positive     9 0.8181818
    ##  8   2005        3 Doors Down  positive    19 0.7600000
    ##  9   2005        Foo Fighters  positive    49 0.7205882
    ## 10   2005          Toby Keith  positive    18 0.7200000
    ## # ... with 38 more rows
…
# count individual words by decade...
unique_words_by_decade <- lyrics_tidy %>% 
count(decade, word, sort = TRUE) %>%
  ungroup() %>% 
  arrange(decade)

# join the two dfs above
tfidf_data <- unique_words_by_decade %>% 
  left_join(total_words_by_decade)

tfidf_data
```

    ## # A tibble: 54,641 x 4
    ##    decade  word     n total_words
    ##    <fctr> <chr> <int>       <int>
    ##  1    60s   you  6396      167536
    ##  2    60s     i  5545      167536
    ##  3    60s   the  5166      167536
    ##  4    60s   and  3790      167536
    ##  5    60s    to  3677      167536
    ##  6    60s     a  3597      167536
    ##  7    60s    me  3337      167536
    ##  8    60s    my  2526      167536
    ##  9    60s  love  2155      167536
    ## 10    60s    in  1829      167536
    ## # ... with 54,631 more rows
…
